{
	"ImportPath": "github.com/Brain-Salad/ignize/backend",
	"GoVersion": "go1.10",
	"GodepVersion": "v79",
	"Packages": [
		"./..."
	],
	"Deps": [
		{
			"ImportPath": "github.com/davecgh/go-spew/spew",
			"Comment": "v1.0.0-3-g6d21280",
			"Rev": "6d212800a42e8ab5c146b8ace3490ee17e5225f9"
		},
		{
			"ImportPath": "github.com/gorilla/mux",
			"Comment": "v1.1-25-g0a192a1",
			"Rev": "0a192a193177452756c362c20087ddafcf6829c4"
		},
		{
			"ImportPath": "github.com/pmezard/go-difflib/difflib",
			"Comment": "v1.0.0",
			"Rev": "792786c7400a136282c1664665ae0a8db921c6c2"
		},
		{
			"ImportPath": "github.com/stretchr/objx",
			"Rev": "1a9d0bb9f541897e62256577b352fdbc1fb4fd94"
		},
		{
			"ImportPath": "github.com/stretchr/testify/assert",
			"Comment": "v1.1.4-4-g976c720",
			"Rev": "976c720a22c8eb4eb6a0b4348ad85ad12491a506"
		},
		{
			"ImportPath": "github.com/stretchr/testify/mock",
			"Comment": "v1.1.4-4-g976c720",
			"Rev": "976c720a22c8eb4eb6a0b4348ad85ad12491a506"
		},
		{
			"ImportPath": "github.com/studio-b12/gowebdav",
			"Rev": "f60c73fbb47189864999436924fd22b6028abcac"
		}
	]
}
